{
    "type": "application",
    "source-directories": [
        "src/client/elm"
    ],
    "elm-version": "0.19.1",
    "dependencies": {
        "direct": {
            "elm/browser": "1.0.2",
            "elm/core": "1.0.5",
            "elm/html": "1.0.0",
            "elm/http": "2.0.0",
            "elm/json": "1.1.3",
            "elm/parser": "1.1.0",
            "elm/svg": "1.0.1",
            "elm/time": "1.0.0",
            "elm/url": "1.0.0",
            "rundis/elm-bootstrap": "5.2.0"
        },
        "indirect": {
            "avh4/elm-color": "1.0.0",
            "elm/bytes": "1.0.8",
            "elm/file": "1.0.5",
            "elm/virtual-dom": "1.0.2"
        }
    },
    "test-dependencies": {
        "direct": {},
        "indirect": {}
    }
}
